{
  "users": [
    {
      "userName": "DarthVader",
      "password": "guest1"
    },
    {
      "userName": "LukeSkywaler",
      "password": "guest3"
    },
    {
      "userName": "samIam",
      "firstName": "sam",
      "lastName": "iam",
      "phone": "123"
    }
  ]
}